//(Shop ID) (Money ID) (General Store ?) (Iron Man?) - Store Name - itemId quantity item quantity and repeat
1 995 true true - General Store - 1931 10 1935 10 5603 10 1925 10 1923 10 1887 10 590 10 2347 10 550 10 954 10 2574 5 2575 5 2576 5
2 995 false true - Thessalia's Clothing - 1005 10 1129 10 1059 10 1061 10 1757 10 1013 10 1015 10 1011 10 1007 10 950 10 428 10 426 10 1733 10 1734 1000 
3 995 false true - Zaff's Superior Staves - 1379 10 1389 10 1381 10 1383 10 1385 10 1387 10 
4 995 false true - Varrock Sword Shop - 1205 100 1203 100 1207 100 1209 100 1211 100 1277 100 1279 100 1281 100 1283 100 1285 100 1287 100 1291 100 1293 100 1295 100 1297 100 1299 100 1301 100 
5 995 false true - Tea Shop - 1978 10 
6 995 false true - Aubury's Rune Shop - 554 300 555 300 556 300 557 300 558 100 559 100 562 30 560 10 
7 995 false true - Lowe's Archery Emporium - 882 1000 884 100 886 100 888 100 890 30 877 300 841 10 839 10 843 10 845 10 849 10 843 10 849 10 847 10 853 10 851 10 1129 10 1059 100 1061 10 1095 10 1133 10 1097 10 1131 10 
8 995 false true - Horvik's Armour Shop - 1103 10 1101 10 1155 100 1153 100 1117 100 1115 100 1173 10 1175 10 1075 100 1067 100 1087 10 1081 10 1119 100 1125 10 1121 100 
9 995 false true - Crate - 2518 10 
10 995 false true - Harry's Fishing Shop - 303 10 307 10 311 1000 301 10 313 1000 305 10 317 1000 327 1 345 1 353 1 341 1 321 1 359 1 377 1 363 1 371 1 383 1 
11 995 false true - Authentic Throwing Weapons - 825 1000 826 1000 827 300 828 300 829 100 830 100 800 1000 801 1000 802 300 803 300 804 100 805 100 
13 995 false true - Dommik's Crafting Store - 1755 10 1592 10 1597 10 1595 10 1733 10 1734 1000 1599 10 2976 10 5523 10 9434 10 11065 10 
14 995 false true - Magician's Robes Store - 4089 100 4091 100 4093 100 4095 100 4097 100 
23 995 false true - Ardougne Baker's Stall - 2309 10 1891 10 1901 10 1973 100 
24 995 false true - Ardougne Silver Stall - 1714 10 442 1 2355 1 
25 995 false true - Ardougne Gem Stall - 1607 1 1605 1 1603 1 1601 1 
26 995 false true - Ardougne Fur Stall - 948 10 958 10 10117 1 10121 1 10119 1 10123 1 10093 1 10095 1 10097 1 10099 1 10101 1 10103 1 
27 995 false true - Ardougne Spice Stall - 2007 10 946 10 1550 10 
28 995 false true - Zenesha's Platebody Shop - 1117 10 1115 10 1119 10 1125 10 1121 10 
29 995 false true - Aemad's Adventuring Supplies - 227 10 1265 10 1349 10 2142 10 590 10 1759 100 882 1000 954 10 970 10 946 10 1935 10 
30 995 false true - Wydin's Food Store - 1933 500 2132 10 2138 10 1965 10 1963 1 1951 1 2309 1 1973 1 1985 1 1982 10 1942 10 1550 10 
31 995 false true - Gerrant's Fishy Business - 303 10 307 10 309 10 311 1000 301 10 313 1000 314 1000 317 1 327 10 345 1 321 1 335 1 349 1 331 1 359 1 377 1 371 1 
32 995 false true - Grum's Gold Exchange - 1635 1 1637 1 1639 1 1641 1 1643 1 1654 1 1656 1 1658 1 1660 1 1662 1 1692 1 1694 1 1696 1 1698 1 1700 1 11069 1 11072 1 11076 1 11085 1 11092 1 
33 995 false true - Brian's Battleaxe Bazaar - 1375 10 1363 10 1365 10 1367 10 1369 10 1371 10 
34 995 false true - Betty's Magic Emporium - 554 300 555 300 556 300 557 300 558 100 559 100 562 30 560 10 221 300 579 10 1017 10 
35 995 false true - Gem Trader - 1623 1 1621 1 1619 1
36 995 false true - Zeke's Superior Scimitars - 1321 10 1323 10 1325 10 1329 10 
37 995 false true - Louie's Armoured Legs Bazaar - 1075 10 1067 10 1069 10 1077 10 1071 10 1073 10 
38 995 false true - Ranael's Super Skirt Store - 1087 10 1081 10 1083 10 1085 10 1089 10 1091 10 
39 995 false true - Richard's Farming Shop - 5341 10 5343 10 1735 10 952 10 5325 10 5331 10 5354 100 6032 100 6032 300 1925 100 5418 10 5376 10 1942 1 1957 1 1965 1 1982 1 5986 1 5504 1 5982 1 5994 1 5996 1 5998 1 6000 1 6002 1 5931 1 6006 1 6036 10 
40 995 false true - Legends Guild General Store - 373 10 2323 10 121 10 886 10 
41 995 false true - Legends' Guild Shop of Useful Items - 299 500 1590 10 1542 10 2366 10 1052 10 
42 995 false true - Bandit Bargains - 1823 30 1831 30 1937 10 1921 10 1929 10 1935 10 1923 10 1925 30 1837 10 1833 10 1835 10 946 10 
43 995 false true - Peksa's Helmet Shop - 1139 10 1137 10 1141 10 1143 10 1145 10 1155 10 1153 10 1157 10 1165 10 1159 10 1161 10 
44 995 false true - Flynn's Mace Market - 1422 10 1420 10 1424 10 1428 10 1430 10 
45 995 false true - Cassie's Shield Shop - 1171 10 1173 10 1189 10 1175 10 1191 10 1177 10 1193 10 1181 10 
46 995 false true - Herquin's Gems - 1623 1 1621 1 1619 1 1617 1 1607 1 1605 1 1603 1 1601 1 
47 995 false true - Wayne's Chains - 1103 10 1101 10 1105 10 1107 10 1109 10 
48 995 false true - Garden Centre - 8417 10 8419 10 8421 10 8423 10 8425 10 8427 10 8429 10 8431 10 8433 10 8435 10 8451 10 8453 10 8455 10 8457 10 8459 10 8461 10 8437 10 8439 10 8441 10 8443 10 8445 10 8447 10 8449 10 
49 995 false true - Warriors' Guild Potion Shop - 115 10 121 10 133 10 
50 995 false true - Warriors' Guild Food Shop - 333 10 365 10 2289 10 6705 10 2003 10 
51 995 false true - Warrior's Guild Armoury - 1363 10 1365 10 1369 10 1277 10 1279 10 1281 10 1283 10 1285 10 1287 10 1291 10 1293 10 1295 10 1297 10 1299 10 1301 10 1205 10 1203 10 1207 10 1209 10 1207 10 1217 10 1209 10 1211 10 1422 10 1420 10 1424 10 1428 10 1430 10 1307 10 1309 10 1311 10 1313 10 1315 10 1317 10 1103 10 1101 10 1105 10 1139 10 1137 10 1141 10 
52 995 false true -  - 1307 10 1309 10 1311 10 1313 10 1315 10 1317 10 
53 995 false true - Happy Heros' H'emporium - 1377 10 1434 10 
54 995 false true - Slayer Equipment - 4155 30 4156 10 4150 300 13278 300 13279 300 4161 100 4162 10 4164 10 4166 10 4168 10 4170 10 4551 10 6664 100 6696 100 6708 10 7051 10 7159 10 7421 10 7432 10 8923 10 10952 10 21843 10
55 995 false true - Jatix' Herblore Shop - 229 10 233 10 221 10 
56 995 false true - The Pick and Lute - 1917 10 1907 10 1913 10 
57 995 false true - Martin Thwait's Lost and Found - 954 10 1523 10 1755 10 946 10 5560 10 864 100 863 100 865 100 3095 100 3096 100 3097 100 
58 995 false true - Bob's Brilliant Axes - 1265 10 1351 10 1349 10 1353 10 1363 10 1365 10 1369 10
59 995 false true - Hickton's Archery Emporium - 877 300 882 1000 884 1000 886 1 888 1 890 1 892 1 4773 1 4778 1 4783 1 4788 1 4793 1 4798 1 4803 1 39 100 40 100 41 100 42 100 43 10 44 10 841 10 839 10 837 10 843 10 845 10 4827 10 1133 10 1097 10 9785 1 9783 1 9784 1 
60 995 false true - Candle Shop - 36 10 38 10 
61 995 false true - Arhein's Store - 1925 30 1265 10 1923 10 1887 10 590 10 1755 10 2347 10 954 10 1931 10 946 10 
62 995 false true - Rasolo the Wandering Merchant - 1969 10 2023 10 740 10 1215 30 550 10 1925 10 1941 10 273 10 970 10 975 10 1599 10 2976 10 1823 30 1837 10 1854 300 2524 10 3377 10 2894 10 1909 10 3787 10 3711 10 3678 10 3424 10 3420 10 5 10 
63 995 false true - Blurbery's Bar - 2028 10 2030 10 2032 10 2034 10 2036 10 2038 10 2040 10 
64 995 false true - Rometti's Fine Fashions - 646 30 648 30 650 30 652 30 654 30 656 30 658 30 660 30 662 30 664 30 636 30 638 30 640 30 642 30 644 30 626 30 628 30 630 30 632 30 
65 995 false true - Grand Tree Groceries - 2171 10 2128 10 1933 10 2169 10 1957 10 1942 10 1965 10 1982 10 1985 10 6293 10 6295 10 2120 10 2108 10 2102 10 2114 10 2126 10 2025 10 1973 10 1975 10 2130 10 1927 10 946 10 2167 10 2164 10 2165 10 2166 10 
66 995 false true - Gianne's Restaurant - 2227 10 2219 10 2221 10 2225 10 2223 10 2233 10 2187 10 2195 10 2185 10 2205 10 2217 10 2209 10 2241 10 
67 995 false true - Gulluck and Sons - 882 1000 877 300 880 1 841 10 839 10 837 10 39 100 40 100 41 100 42 100 1349 100 1353 100 1363 100 1365 100 1369 100 1307 100 1309 100 1311 100 1313 100 1315 100 
68 995 false true - Funch's Fine Groceries - 2021 10 2019 10 2015 10 2017 10 2114 10 2128 10 2108 10 2120 10 2126 10 2025 10 1973 10 1975 10 2130 10 1927 10 946 10 2023 10 2026 10 
69 995 false true - Oziarch's Armour - 1127 10 1135 10 
70 995 false true - Pollnivneach General Store - 1931 30 1935 10 1823 30 1833 10 1837 10 1925 10 4593 10 4591 10 1985 10 2120 10 1982 10 1937 10 1921 10 
71 995 false true - Shantay Pass Shop - 1823 30 1831 30 1937 10 1921 10 1929 10 946 10 1833 10 1835 10 1837 10 2349 1 314 1000 2347 10 1925 30 1923 10 1935 10 1854 300 954 100 
72 995 false true - Rok's Chocs Box - 6794 10 1973 10 
73 995 false true - Nardah Hunter Shop - 10010 10 10012 300 10025 300 10150 10 10006 10 10008 10 10029 10 596 10 10031 10 
74 995 false true - Seddu's Adventurers Store - 1093 10 1079 10 1113 10 1099 10 1065 10 1193 10 1151 10 
75 995 false true - Frenita's Cookery Shop - 2313 10 1955 1 1887 10 1923 10 1942 10 590 10 1935 10 1931 30 1973 10 1933 500 1980 10 
76 995 false true - Castle Wars Ticket Exchange - 4071 10 4069 10 4070 10 4072 10 4068 10 4506 10 4504 10 4505 10 4507 10 4503 10 4511 10 4509 10 4510 10 4512 10 4508 10 4513 10 4514 10 4515 10 4516 10 4055 10 
77 995 false true - Uglug's Stuffsies - 4844 10 10927 1 1777 1 2876 1 2878 10 4850 1 946 10 4773 1 4778 1 4783 1 4788 1 4793 1 4798 1 4803 1 4827 10 
78 995 false true - Grud's Herblore Stall - 229 10 233 10 221 10 
79 995 false true - Hunting Supplies - 10010 5 10012 30 10150 5 10006 20 9950 1 9948 1 9949 1 
80 995 false true - Gift Shop - 1351 10 1925 30 2878 10 1931 30 314 1000 2347 10 946 10 2866 100 954 10 590 10 
81 995 false true - Fresh Meat - 2140 10 2878 1 7228 1 2142 10 3228 10 2136 300 9986 1 2132 300 9978 10 2138 10 2876 1 7566 1 2337 1 3226 100 9988 1 9980 1 9992 1 9984 1 7230 1 7224 1 
82 995 false true - Moon Clan Fine Clothes - 9068 10 9069 10 9070 10 9071 10 9072 10 9073 10 9074 10 1733 10 1734 1000 
83 995 false true - Fremennik Fishmonger - 303 10 307 10 309 10 311 30 301 10 313 1000 314 1000 305 10 317 10 327 10 345 1 353 1 341 1 321 1 335 1 349 1 331 1 359 1 377 1 363 1 371 1 383 1 
84 995 false true - Sigmund the Merchant - 590 10 954 10 233 10 1931 30 2142 10 2309 10 952 10 36 10 1755 10 2347 10 229 10 227 10 1925 30 1929 10 1944 10 1942 10 1965 10 
85 995 false true - Fremennik Fur Trader - 948 10 958 10 10117 1 10121 1 10119 1 10123 1 10093 1 10095 1 10097 1 10099 1 10101 1 10103 1 
86 995 false true - Yrsa's Accountrements - 3775 10 3773 10 3767 10 3769 10 3771 10 3793 10 3795 10 3797 10 3799 10 3791 10 3765 10 3763 10 3761 10 3759 10 3777 10 3779 10 3781 10 3783 10 3785 10 3787 10 3789 10 
87 995 false true - Skulgrimen's Battle Gear - 1337 10 1335 10 1339 10 1341 10 1343 10 1345 10 1347 1 3749 10 3751 10 3753 10 3755 10 
88 995 false true - Ore Store - 436 10 438 10 440 1 442 1 453 1 444 1 447 1 449 1 
89 995 false true - Armour Shop - 1109 10 1143 10 1159 10 1181 10 1197 10 1071 10 1085 10 1121 10 
90 995 false true - Weapons Galore - 1299 10 1343 10 1369 10 3099 10 1315 10 
91 995 false true - Keppa Kettilon's Store - 361 1 329 10 339 10 379 1 373 1 385 1 
92 995 false true - Flosi's Fishmongers - 377 1 359 1 331 1 341 1 371 1 383 1 
93 995 false true - Neitiznot Supplies - 946 10 2347 10 1734 1000 1733 10 4819 10 1351 10 1759 100 
94 995 false true - Nudolion's Multicannon Parts - 6 10 8 10 10 10 12 10 5 10 4 10 
95 995 false true - Nurmof's Pickaxe Shop - 1265 10 1267 10 1269 10 1273 10 1271 10 1275 10 
96 995 false true - Crossbow Shop - 9440 10 9442 10 9444 10 9446 10 9448 10 9450 10 9452 10 9420 10 9423 10 9425 10 9427 10 9429 1 9431 1 9174 1 9177 1 9179 1 9181 1 9183 1 9185 1 
97 995 false true - Fortunato's Fine Wine - 1993 10 1935 10 7919 10 
98 995 false true - Diango's Toy Store - 2520 10 2522 10 2524 10 2526 10 4613 10 
99 995 false true - Draynor Seed Market - 5318 10 5319 10 5324 10 5322 1 5320 1 5323 1 5321 1 5305 10 5306 10 5097 10 5096 10 5307 10 5308 10 5309 10 5310 10 5311 10 
100 995 false true - Brian's Archery Supplies - 886 100 888 30 890 1 843 10 845 10 849 10 847 10 853 10 851 10 
101 995 false true - Rommik's Crafty Supplies - 1755 10 1592 10 1597 10 1595 10 1733 10 1734 1000 1599 10 2976 10 5523 10 9434 10 11065 10 
102 995 false true - Rovar's Bar - 2955 10 
103 995 false true - Rufus's Meat Emporium - 2132 100 2138 30 2134 10 2136 10 335 1 349 1 331 1 383 1 
104 995 false true - Barker's Harberdashery - 2894 10 2896 10 2898 10 2900 10 2902 10 2904 10 2906 10 2908 10 2910 10 2912 10 2914 10 2916 10 2918 10 2920 10 2922 10 2924 10 2926 10 2928 10 2930 10 2932 10 2934 10 2936 10 2938 10 2940 10 2942 10 1007 10 1019 10 1021 10 1023 10 1027 10 
105 995 false true - Alice's Farming Shop - 5341 10 5343 10 5329 10 952 10 5325 10 5331 30 5354 100 6032 300 1925 100 5418 10 5376 10 1942 1 1957 1 1965 1 1982 1 5986 1 5504 1 5982 1 5994 1 5996 1 5998 1 6000 1 6002 1 5931 1 6006 1 6036 10 
106 995 false true - Ak-Haranu's Exotic Shop - 4740 100 
107 995 false true - Trader Stan's Trading Post - 1931 30 1935 10 1735 10 1925 30 1923 10 1887 10 590 10 1755 10 2347 10 550 10 9003 10 954 10 946 10 2114 1 1963 10 2108 1 1785 10 1783 1 401 1 592 1 301 10 307 10 1941 10 9629 10 3226 10 1025 10 6014 1 
108 995 false true - Aurel's Supplies - 1351 10 590 10 3363 10 353 10 952 10 
109 995 false true - Khazard General Store - 1265 10 1931 30 1935 10 1735 10 1925 30 590 10 1755 10 2347 10 954 10 1933 500 583 10 1941 1000 946 10 
110 995 false true - Davon's Amulet Store - 1718 1 1694 1 1696 1 1698 1 1700 1 
111 995 false true - TzHaar-Mej-Roh's Rune Store - 554 1000 555 1000 556 1000 557 1000 558 1000 559 1000 562 300 560 100 
112 995 false true - TzHaar-Hur-Lek's Ore and Gem Store - 438 5 436 5 440 2 1623 1 1621 1 6571 1 9194 50 
113 995 false true - TzHaar-Hur-Tel's Equipment Store - 6522 10 6523 10 6524 10 6525 10 6526 10 6527 10 6528 10 6568 10 
114 995 false true - The Shrimp and Parrot - 347 10 339 10 361 10 379 10 373 10 3144 10 
115 995 false true - Jiminua's Jungle Store - 590 10 36 10 596 10 1931 30 954 10 1129 10 1059 10 1061 10 2142 10 2309 10 229 300 227 300 233 10 175 10 970 10 973 10 946 10 2347 10 975 10 1755 10 952 10 1351 10 1265 10 1349 10 
116 995 false true - Obli's General Store - 590 10 229 10 233 10 1931 30 1351 10 1265 10 1349 10 1129 10 1059 10 1061 10 2142 10 2309 10 952 10 36 10 596 10 1755 10 2347 10 970 10 973 10 227 10 975 10 954 10 
117 995 false true - Fernahei's Fishing Hut - 307 10 309 10 313 1000 314 1000 335 10 349 10 331 10 
118 995 false true - Trader Sven's Black Market Goods - 9644 10 9640 10 9642 10 9636 10 9638 10 9634 10 
119 995 false true - Dodgy Mike's Second Hand Clothing - 7130 10 7136 10 7124 10 7112 10 7114 10 7132 10 7138 10 7116 10 7126 10 7128 10 7134 10 7110 10 7122 10 
120 995 false true - 'Two Feet' Charley's Fish Shop - 321 10 363 1 341 10 345 10 377 1 353 10 327 10 317 10 371 1 359 1 
121 995 false true - Honest Jimmy's House of Stuff - 8956 10 8995 10 8963 10 8952 10 8991 10 8959 10 8968 10 8955 10 8994 10 8962 10 8966 10 8953 10 8992 10 8960 10 8958 10 8997 10 8965 10 8967 10 8969 10 8971 10 8957 10 8996 10 8964 10 8954 10 8993 10 8961 10 8941 10 8940 10 8988 10 8970 10 
122 995 false true - Harpoon Joe's House of Rum - 1917 10 7157 10 1993 10 2003 10 
123 995 false true - Smithing Smith's Shop - 1321 10 2347 10 7141 10 1323 10 7140 10 1329 10 7142 10 1325 10 
124 995 false true - Blackjack Seller - 6412 10 
125 995 false true - Blades By Urbi - 1211 10 1217 1 1205 10 1321 10 1215 10 1203 10 1323 10 1209 10 1213 10 1207 10 1325 10 
126 995 false true - The Spice Is Right - 175 10 5970 1 1931 30 2169 10 
127 995 false true - Raetul and Co's Cloth Store - 1837 10 1835 10 1833 10 4684 10 1733 10 950 10 1734 1000 
128 995 false true - Nathifa's Bake Stall - 2309 10 1891 10 1901 10 1823 30 
129 995 false true - Jamila's Craft Stall - 1595 10 11065 10 1755 10 1599 10 1597 10 1733 10 1592 10 2976 10 1734 1000 5523 10 
130 995 false true - Etceteria Fish - 305 10 314 1000 313 1000 307 10 309 10 311 30 301 10 321 1 363 1 341 1 345 1 377 1 353 1 349 1 331 1 327 1 383 1 317 1 371 1 335 1 359 1 303 10 
131 995 false true - Lletya Seamstress - 1759 100 1767 10 1771 10 1733 10 1769 10 1773 10 1763 10 1734 1000 1765 10 
132 995 false true - Lletya Food Store - 2309 10 1891 10 1985 10 1993 10 379 10 
133 995 false true - Lletya Archery Shop - 890 100 877 1000 837 10 884 1000 888 100 845 10 843 10 892 30 886 300 847 10 849 10 
134 995 false true - The Milk Shop - 1927 200 
135 995 false true - Beefy Bill's Supplies - 882 30 1173 10 1277 10 1929 10 1887 10 1949 10 1931 30 1937 10 2313 10 1951 10 1735 10 841 10 1969 10 590 10 
136 995 false true - Candle Seller - 36 9
137 995 false true - Quartermaster's Stores - 3200 10 3196 10 2309 10 3190 10 3204 10 1931 30 3192 10 1935 10 3198 10 3202 10 1735 10 3194 10 590 10 
138 995 false true - Crossbow Shop - 9174 10 9177 10 9179 10 9181 10 9183 10 9185 10 9440 10 9442 10 9444 10 9446 10 9448 10 9450 10 9452 10 9420 10 9423 10 9425 10 9427 10 9429 10 9431 10 
139 995 false true - Jukat - 1215 30 1305 10 
140 995 false true - Irksol - 1641 10 
141 995 false true - Aaron's Archery Appendages - 1169 10 1131 10 1129 10 1095 10 1167 10 1063 10 1133 10 1097 10 9758 1 9756 1 9757 1 
142 995 false true - Dargaud's Bow and Arrows - 882 1000 884 300 886 300 888 100 890 100 892 100 4773 1 4778 1 4783 1 4793 1 4798 1 4803 1 52 1000 39 300 40 300 41 100 42 100 43 100 44 30 841 10 839 10 843 10 845 10 849 10 847 10 
143 995 false true - Ifaba's General Store - 1925 30 1931 30 2347 10 1935 10 954 10 590 10 
144 995 false true - Daga's Scimitar Smithy - 1321 10 4587 10 1323 10 1329 10 1325 10 
145 995 false true - Tutab's Magical Market - 556 1000 557 1000 4008 10 554 1000 563 100 4006 10 4023 10 555 1000 
146 995 false true - Hamab's Crafting Emporium - 1759 100 11065 10 1755 10 4020 10 1597 10 1733 10 1592 10 1734 1000 
147 995 false true - Solihib's Food Shop - 1963 10 4016 10 4014 100 4012 100 
148 995 false true - Pickaxe-Is-Mine - 1265 10 1269 10 1273 10 1271 10 1275 10 
149 995 false true - Keldagrim's Best Bread - 2309 10 1891 10 1901 10 
150 995 false true - Silver Cog Silver Stall - 2355 10 442 10 1714 10 
151 995 false true - Green Gemstone Gems - 1607 1 1605 1 1603 1 1601 1 
152 995 false true - Carefree Crafting Stall - 1759 10 1755 10 1597 10 1733 10 1592 10 1734 1000 
153 995 false true - Vermundi's Clothing Stall - 5030 10 5042 10 950 10 5048 10 5036 10 5024 10 
154 995 false true - Crossbow Shop - 9174 1 9177 1 9179 1 9181 1 9183 1 9185 1 9420 7 9423 10 9425 10 9427 10 9429 10 9431 1 9440 10 9442 10 9444 10 9446 10 9448 10 9450 10 9452 10 
155 995 false true - Vigr's Warhammers - 1337 10 1335 10 1339 10 1341 10 1343 10 1345 10 
156 995 false true - Quality Armour Shop - 1107 10 1105 10 1109 10 1195 10 1177 10 1141 10 1143 10 1145 10 
157 995 false true - Quality Weapons Shop - 888 100 890 100 1295 10 1365 10 1325 10 1297 10 1369 10 1285 10 1287 10 1303 10 851 10 853 10 
158 995 false true - Keldagrim Stonemason - 8784 30 3420 500 8788 30 8786 30 
159 995 false true - Gunslik's Assorted Supplies - 1925 30 36 10 973 10 1755 10 2347 10 1935 10 1059 10 233 10 954 10 590 10 596 10 229 300 
160 995 false true - Agmundi Quality Clothes - 5034 10 5032 10 5046 10 5044 10 5052 10 5050 10 5040 10 5038 10 5028 10 5026 10 
160 995 false true - Party Pete's Emporium - 14743 10 14745 10 14747 10 14749 10 14751 10 14753 10 14755 10 14757 10 14759 10 14761 10 14763 10 14765 10 14767 10 14769 10 14771 10 14773 10 14775 10 14777 10 14779 10 14781 10 14783 10 14785 10 14787 10 14789 10 14791 10 
161 995 false true - Iffie's Random Costume Shop - 6656 1 6654 1 6655 1 6188 1 6184 1 6185 1 6182 1 6180 1 6181 1 3057 1 3058 1 3059 1 3060 1 3061 1 7594 1 7592 1 7593 1 7595 1 7596 1 
162 995 false true - Magestix' Summoning Shop - 12183 65000 12155 50000 7939 1 
163 995 false true - Pet Shop - 12183 6500
164 995 false false - Pikkupstix' Summoning Shop - 15262 100 12183 100023 12155 100023 2859 100 2138 100 440 100 6032 25 1519 25 12168 25 12156 25 6010 25 249 25 590 25 1635 25 2132 25 9978 25 311 25 10103 25 10099 25 6667 25 9736 25 8431 25 2150 25 7939 25 2359 20 1963 25 6979 25 1442 25 1440 25 571 25 10149 25 237 25 1444 25 1115 25 10818 25 1119 10
165 995 false true - Poletax's Herblore Shop - 229 10 227 20 233 10 221 10 225 5 
166 995 false true - Alfred Stonemason's Construction Shop - 2347 10 8794 10 960 5 8778 5 8780 5 8782 5 4820 50 1539 50 1775 10 434 10 1761 10 8790 10 2351 10 2353 10 3211 10 3420 10 8784 10 8786 10 8788 10 8431 10 8433 10 8435 10 8417 10 8419 10 8421 10 8423 10 8425 10 8427 10 8429 10 8451 10 8453 10 8455 10 8457 10 8459 10 8461 10 15237 10 15239 10 8788 10
167 995 false true - Head Farmer Jones's Farming Shop - 5318 10 5331 30 6032 300 5343 10 5325 10 952 10 5329 10 5341 10 1925 100 6036 10 1735 20 
168 995 false true - Jack Oval's Crafting Shop - 1755 14 1733 10 1734 5 1925 10 1735 10 1592 1 1595 1 1597 1 1599 1 5523 1 
169 995 false true - Tobias Bronzearm's Mining Supplies Shop - 1265 10 
170 995 false true - Martin Steelweaver's Smithing Supplies Shop - 2347 10 
171 995 false true - Faruq's Tools for Games - 15046 10 15078 10 15080 10 15082 10 15075 10 15056 10 15059 10 15061 10 15069 10 15073 10 15077 10 15484 10 
172 995 false true - Karamja Wines, Spirits, and Beers - 3803 3 431 3 1993 1 
173 995 false true - Al Kharid General Store - 1931 30 1935 10 5603 10 1925 30 1923 10 1887 10 590 10 2347 10 550 10 
174 995 false false - Starter Supplies - 333 10000 334 10000 1540 10 1153 100 1115 100 1067 100 1081 100 1309 100 1323 100 1191 100 1169 100 1129 100 1095 100 1059 100 1063 100 1061 100 841 100 882 10000 579 100 577 100 1011 100 1379 100 556 10000 558 10000 
175 995 false false - Orlando's Starting Supplies - 952 10 590 10 946 10 2347 10 8794 10 1755 10 7409 10 1349 10 1353 10 1355 10 1357 10 1359 10 1267 10 1269 10 1273 10 1271 10 1275 10 676 10 5325 10 5343 10 10006 5 10008 5 10010 5 11259 5 10012 5 11260 5 1779 25 1625 25 1627 25 1629 25 1623 25 1621 25 1619 25 15707 5 
176 995 false false - Fisherman Supplies - 303 10 13431 10 307 10 313 500 305 10 309 10 314 500 311 10 301 10 
177 995 false true - Skillcape Hoods - 9749 50 9752 50 9755 50 9758 50 9761 50 9764 50 9767 50 9770 50 9773 50 9776 50 9779 50 9782 50 9785 50 9788 50 9791 50 9794 50 9797 50 9800 50 9803 50 9806 50 9809 50 9812 50 9950 50 12171 50 18510 50 29187 50 
178 995 false true - Un-Trimmed Skillcapes - 9747 50 9750 50 9753 50 9756 50 9759 50 9762 50 9765 50 9768 50 9771 50 9774 50 9777 50 9780 50 9783 50 9786 50 9789 50 9792 50 9795 50 9798 50 9801 50 9804 50 9807 50 9810 50 10646 50 12524 50 18509 50 29185 50 
179 995 false true - Trimmed Skillcapes - 9748 50 9751 50 9754 50 9757 50 9760 50 9763 50 9766 50 9769 50 9772 50 9775 50 9778 50 9781 50 9784 50 9787 50 9790 50 9793 50 9796 50 9799 50 9802 50 9805 50 9808 50 9811 50 9949 50 12170 50 18508 50 29186 50 
180 995 false true - Master Skillcapes - 31268 50 31269 50 31270 50 31271 50 31272 50 31273 50 31274 50 31275 50 31276 50 31277 50 31278 50 31279 50 31280 50 31281 50 31282 50 31283 50 31284 50 31285 50 31286 50 31287 50 31288 50 31289 50 31290 50 31291 50 31292 50 19709 50 31284 50 
181 995 false false - Melee Supplies - 11818 5 11822 5 11834 5 11838 5 1712 5 10828 5 3753 5 3751 5 4131 5 7460 5 7461 5 7462 5 1540 5 10887 5 6746 5 1323 5 1325 5 1329 5 1331 5 1333 5 25755 5 1319 5
182 995 false false - Magic Supplies - 554 500 555 500 556 500 557 500 558 500 559 500 560 500 561 500 562 500 563 500 564 500 565 500 566 500 9075 500 1381 10 1383 10 1385 10 1387 10 4675 10 1391 10 25650 10 25658 10 4089 10 4091 10 4093 10 4095 10 4097 10 22452 10 22456 10 22454 10 
183 995 false false - Ranged Supplies - 11864 10 11866 10 11868 10 11870 10 24386 10 10499 10 1095 10 1129 10 3749 10 33534 10 841 10 859 10 861 10 9185 10 25891 10 8880 10 14684 10 8882 100 877 100 9140 100 9141 100 9142 100 9143 100 9144 100 882 100 884 100 886 100 888 100 890 100 892 100
184 995 false true - Aubury's Rune Shop - 554 30 555 30 556 30 557 30 558 10 559 10 562 3 560 10 
185 995 false true - Dealga's Scimitar Emporium - 4587 10 25758 10
186 995 false true - Jatix' Herblore Shop - 229 25 227 25 15362 25 15364 5 221 10 225 10 235 10 239 10 231 10 245 10 12539 50 1937 10 223 10 3138 10 237 10 21622 10 1975 10 9736 10 2970 10 6693 10 5972 5 4621 10 9594 20 4698 50 28310 25
187 995 false true - Culinaromancer Gloves - 7453 10 7454 10 7455 10 7456 10 7457 10 7458 10 7459 10 7460 10 7461 10 7462 10
188 995 false true - Vanessa's Farming Shop - 6032 30 5341 10 5325 10 6036 30 5343 10 5331 10 5329 10 952 10 5350 30 1925 30 5418 3 15367 1 15366 1 5996 30 6006 30 1965 30 5994 30 5931 30 6000 30 1957 30 1942 30 5504 30 5986 30 1982 30 5982 30 6002 30 5998 30 
189 995 false true - Sawmil Supplies - 8794 10 4819 300 4820 300 1539 300 8790 300
190 467 false true - Normal Aura Shop - 22889 1 22895 1 22897 1 20966 5 22905 1 22891 1 22294 1 23848 5 22296 1 22280 1 22300 1 20958 1 22284 1 22893 1 22292 1 20965 1 20962 1 22899 1 20967 1 20964 1 22927 1 22298 1 
191 456 false true - Greater Aura Shop - 22268 1 22270 1 22272 1 22274 1 22276 1 22278 1 22282 1 22286 1 22290 1 22885 1 22901 1 22907 1 22929 1 23842 1 23850 1 22302 1
192 456 false true - Master Aura Shop - 22887 1 22903 1 22909 1 22911 1 22913 1 22915 1 22917 1 22919 1 22921 1 22923 1 22925 1 22931 1 22933 1 23844 1 23852 1
193 456 false true - Supreme Aura Shop - 23854 1 23856 1 23858 1 23860 1 23862 1 23864 1 23866 1 23868 1 23870 1 23872 1 23874 1 23876 1 23878 1
//194 18201 true false - Dungeoneering Supply Shop - 17630 1000 17632 1000 17634 1000 17636 1000 17638 1000 17640 1000 17642 1000 17644 1000 17646 1000 17648 1000 17452 100 17454 100 17456 100 17458 100 17460 100 17462 100 17464 100 17466 100 17700 100 17341 10 16297 10 16299 10 16363 10 16365 10 16935 10 16977 10 16317 10 16867 10 2347 100 590 100
195 456 false true - Vote Shop - 10686 1 7386 1 7390 1 7394 1 10400 1 10402 1 10394 1 2643 1 1837 1 5553 1 5555 1 5557 1 20750 1 20765 1 13612 1 13614 1 13617 1 13618 1 20787 1 20788 1 20789 1 20790 1 20791 1 30920 1 22332 1 6199 1 26384 1 
196 456 false true - Skill Task Shop - 31041 1 31042 1 31043 1 31044 1 25205 1 30372 1 7409 1 15345 1 15347 1 15349 1 19748 1 13560 1 13561 1 13562 1 19760 1 4251 1 13661 1 27477 1 
197 995 false true - Expert Hoods & Capes - 32056 1 32057 1 32058 1 32059 1 32052 1 32053 1 32054 1 32055 1
198 995 false false - Plank Shop - 960 1 8778 1
199 995 false true - Hefin Cathedral - 32615 1
200 995 false false - Food Shop - 315 25 361 25 379 25 373 25 
201 995 false false - Mage Bank - 2415 1 2416 1 2417 1 
203 456 false false - Rapture's Shop - 13898 1 13886 1 13892 1 13889 1 13895 1 13901 1 13878 1 13872 1 13875 1 13866 1 13860 1 13863 1 13869 1
204 995 false false - Runecrafting Supplies - 1438 10 1440 10 1442 10 1444 10 1446 10 1448 10 1450 10 1452 10 1454 10 1456 10 1458 10 1460 10 1462 10 5509 5 5510 5 5512 5 5514 5 24204 5 22332 5
205 995 false true - Naff's Knockoff Staves - 1391 80
206 995 false true - Lletya Seanstress - 1734 1000 1733 10 1759 100 1763 10 1765 10 1767 10 1769 1771 10 1773 10
207 995 false true - Magic Guild Store Mystic Robes - 4089 10 4091 10 4093 10 4095 10 4097 10 25812 10 25668 10 25644 10 28628 10
208 995 false true - Magic Guild Store Runes and Staves - 556 100 555 100 557 100 554 100 558 100 559 100 562 500 561 500 560 100 563 100 565 100 566 100 1387 10 1383 10 1381 10 1385 10
209 995 false true - Skullgrimen's Battle Gear - 3749 10 3751 10 3753 10 3755 10
210 995 false true - Contraband Yak Produce - 10818 10 10816 10 10814 10
211 995 false true - Meilyr Clan Store - 32665 4 229 19 15362 6 227 20 15363 40 233 10 221 10 15364 10 235 5 225 5 239 5
212 995 false true - Lunet's Battlestaves - 1391 80
213 995 false true - Fish Oil Sales - 37762 20 37761 20 37764 20 37766 20 37768 20 37734 5 37739 5
214 995 false true - Torts R Us - 37775 5 37776 1 37777 1 37745 1 37746 1 38602 1
215 995 false true - Greegree Shop - 4024 100 4026 100 4029 100 4031 100
216 995 false true - Ironman Summoning Shop - 12183 100023 12155 100023
217 995 false true - Ironman Skilling Shop - 960 1 8778 1 229 10 233 10 221 10 5331 30 6032 300 5343 10 5325 10 952 10 5329 10 5341 10 2347 10 8794 10 946 10 8788 10 10008 10 10006 10 10010 10 11260 1000
218 995 false true - Ironman General Shop - 313 100 1734 10 1733 10 1887 1 2313 10 1540 1 2574 1 6746 1 22452 10 22456 10 22454 10 20068 10 26777 10 26778 10
219 995 false true - Ironman Slayer Shop - 4155 30 4156 10 4150 300 13278 300 13279 300 4161 100 4162 10 4164 10 4166 10 4168 10 4170 10 4551 10 6664 100 6696 100 6708 10 7051 10 7159 10 7421 10 7432 10 8923 10 10952 10 21843 10
220 995 false true - Max Shop - 20768 1 20767 1 32151 1
221 995 false false - Legendary Donator shop - 380 50 374 50 877 500 9140 500 9141 500 9142 500 9143 500 9144 500 1626 50 1628 50 1630 50 314 250 313 250 1779 20 1780 20
222 995 false true - Supreme Donator shop - 228 50 232 20 224 20 12539 75 21623 20 6694 20 15263 6 961 10 8779 10 8781 10 8783 10
223 995 false true - Divine Donator shop - 10819 15 1120 5 9191 100 30368 1 27215 1
224 995 false true - Angelic Donator shop - 26567 1 26568 1 20498 1 20499 1 20500 1 20501 1 2 100
225 995 false true - Demonic Donator shop - 385 10 28833 1 34785 1
226 995 false true - Heroic Donator shop - 28828 1 34786 1
227 995 false true - Retro Skillcape Shop - 34578 1 34581 1 34583 1 34586 1 34588 1 34591 1 34593 1 34596 1 34598 1 34601 1 34603 1 34606 1 34608 1 34611 1 34613 1 34616 1 34618 1 34621 1 34623 1 34626 1 34628 1 34631 1 34633 1 34636 1 34638 1 34641 1 34643 1 34646 1 34648 1
228 995 false true - Retro Skillcape Shop - 34651 1 34653 1 34656 1 34658 1 34661 1 34663 1 34666 1 34668 1 34541 1 34543 1 34546 1 34548 1 34551 1 34553 1 34556 1 34558 1 34563 1 34568 1 34573 1 34571 1 34566 1 34561 1
229 995 false true - Saro's Reinforcing Plates - 30028 10
230 995 false true - Lumbridge Fishing Supples - 303 5 307 10 309 10 13431 10 313 1000 314 3000 317 0 327 0 345 0 321 0 335 0 349 0 331 0 13435 0